[gd_scene load_steps=2 format=2]

[ext_resource path="res://Area2D.gd" type="Script" id=1]

[node name="Area2D" type="Area2D"]
script = ExtResource( 1 )

[connection signal="body_entered" from="." to="." method="_on_Area2D_body_entered"]
